20

8
0drKUgnt-74620840
TrQUBll_-64554841
SY_qg02m-91443446
KKbFeXab-27604406
3N32m8TX-21776528
nGKpZ22E-52580333
PyciI2W9-65429360
0iCGF5jv-35783047
5 8 1 6 7 3 2 4
4 5 7 1 3 2 8 6
1 3 7 4 8 5 6 2

8
XAHNnc1V-83470595
P0TGn0hf-43577641
wVv8nLgx-35905690
QD287JqO-34549416
Pf7LBXh7-21056160
_Db7IPaH-62070197
nWGP8ucd-94000537
pUWzgKsq-56682134
1 5 6 7 3 4 8 2
5 1 6 7 4 2 3 8
6 3 8 7 1 5 2 4
8 3 2 4 5 7 6 1
3 1 8 7 5 4 6 2
3 2 1 6 7 8 5 4
4 7 3 2 6 5 8 1
7 1 6 5 8 2 3 4
6 4 3 8 5 7 2 1
1 6 4 5 7 8 3 2

5
bqPVEXnv-45697474
bYxmlu0H-35165221
oswz7hGg-07109127
cuHAD11J-23734889
hMBiP7Yx-37505703
5 1 4 2 3
1 3 5 4 2
2 5 4 3 1
2 1 4 5 3

7
IcPZwyKy-59577508
Q9hBiHyQ-58431277
JG8Tiv96-31644870
CSesrTnc-81149908
kXyA1Z0p-84216589
EOFymPQR-13332015
Ck_BMEKI-15785944
3 1 7 5 2 6 4
2 1 4 6 5 7 3
1 6 3 5 4 2 7
1 2 3 4 5 6 7
4 5 6 2 1 3 7
4 7 2 1 5 6 3
6 4 5 7 1 3 2
7 6 5 3 2 4 1
4 7 2 3 1 5 6

3
8ZFKK_Wj-30216757
ImGOyLpj-63653200
ZxWmxXTg-45713636
3 1 2
1 3 2
1 2 3
2 1 3
2 3 1
2 1 3

6
f7FeCn4k-27880560
KP8fhjnk-38722650
NYLw9Tio-60425797
jNgwjkxP-57766023
iPEB8QB0-71363386
aMDjlCo9-19529754
3 1 5 4 2 6

6
HLKkPOyD-59725936
O01GWQTr-53084873
QeZIdKPI-45647139
mhhhbfFc-33363662
quUxdF7v-82838120
bhaZLMcR-58874216
4 2 5 1 6 3
3 4 2 6 1 5
5 1 2 4 3 6
5 6 1 2 3 4

8
gRFogSc8-23926807
lV0OIA1Z-97026990
ItQz5Ioo-48420996
IKmjqUts-37750839
5Ae1UGTy-13608080
edIjZbRm-14088945
okFpBtA2-11738508
IAuKjPmj-54350352
8 1 6 5 2 3 7 4
4 2 8 7 3 6 5 1
4 3 7 1 6 8 5 2
4 5 7 3 6 1 8 2
3 4 5 8 1 6 7 2
3 5 2 1 8 7 6 4
1 7 4 8 2 6 5 3
8 6 1 5 3 7 4 2
1 4 8 3 6 7 2 5
1 4 3 5 6 7 2 8

6
lXUkJhQc-28268694
4Pkl3phT-29728519
HRdAeZjT-18118832
zXRq348R-79143117
lvmrn52V-21584431
RtV_g2H8-39797274
5 6 2 3 4 1
1 2 3 4 5 6
1 3 6 4 5 2
1 2 3 5 4 6
4 2 5 1 6 3
3 6 1 2 4 5
5 2 3 4 1 6
6 5 2 1 4 3

4
2FbECwc4-62921988
FrwqLFiy-75689585
kaQkCjU9-26920774
tKXlLZkz-78721435
3 2 4 1

4
AAWY6A6n-31417202
APVnq_He-49421870
6TiPzHFA-18930090
E6TLTNlA-17465730
1 2 3 4
3 2 1 4

1
fPislfJ8-38413362
1
1
1
1
1
1
1
1

5
TmOrBD3R-42136455
HswMgNpY-23860302
MI0MpCZ4-64830044
n4A6iB3Z-41574838
gnaNyQai-98128911
3 2 1 5 4
4 1 2 3 5
4 2 1 5 3

3
dZafU09x-08755688
iES3ZCuz-30360721
NDJaVoTu-70626876
1 3 2
2 3 1
1 2 3
1 2 3
3 2 1

5
ImFZmUhA-01867924
vH0T0eng-22975748
lgcqo1JA-02995704
BZm5Q4sI-52407287
mcFCqTMp-53197502
1 2 3 4 5
2 3 4 1 5
2 5 1 3 4
3 2 5 4 1
4 3 1 5 2
1 2 5 4 3

5
nMfvtrhv-07884192
VIvOsfpV-79381345
_XpfzgAz-54295312
M5LUFsFW-31331118
e42pH_k2-60132406
2 5 3 4 1
5 1 2 3 4
4 1 2 5 3
5 2 1 3 4

7
78vIppe1-19413905
szBPkgNR-87295448
w7xF1Vnw-49210894
Sp2uR1GK-25470399
YRsx2zlW-87623114
lmri7Jt8-48676548
FW80WmCu-99044118
1 3 2 6 5 7 4
3 2 5 1 6 4 7
3 7 4 2 1 6 5

3
LQx2TiyR-69118350
StLy4Sk6-66984383
7f61uuzh-50861150
3 2 1
1 2 3
2 3 1
1 2 3
1 3 2
2 3 1
2 3 1
3 1 2
1 2 3

4
uSaKBz6E-30470861
QjhoFBCp-87119184
7tjopFOp-95284696
qSdEEBjC-56007077
1 3 2 4
1 2 4 3
2 4 3 1
2 4 1 3
3 4 2 1

1
HAevFm0a-11680646
1
1
1
1
